…
##### Summarizing: Compute the *range*, *mean*, and *two other summary statistics* of **one numerical variable** across the groups of **one categorical variable** from your data.

*height_range_id* is an integer variable, with its definition of 0-10
for every 10 feet (e.g., 0 = 0-10 ft). So it’s more like a catergorical
value. To evaluate the relationship between time and tree’s height, I
calculated the **mean** of *height_range_id* across *year*.

``` r
vancouver_trees_year_height <- vancouver_trees_time %>%
                              group_by(year) %>%
                              summarise(height_range_id_mean = mean(height_range_id, na.rm = TRUE))
head(vancouver_trees_year_height, n = 40)
```

    ## # A tibble: 31 × 2
    ##    year  height_range_id_mean
    ##    <chr>                <dbl>
    ##  1 1989                  2.51
    ##  2 1990                  2.50
    ##  3 1991                  2.68
    ##  4 1992                  3.00
    ##  5 1993                  2.57
    ##  6 1994                  2.40
    ##  7 1995                  2.34
    ##  8 1996                  2.37
    ##  9 1997                  2.35
    ## 10 1998                  2.43
    ## # … with 21 more rows
…
    ## [1] 2 2 1 4 2 1

To evaluate the relationship between *neighbourhood_name* and tree’s
size, I calculated the **mean** of both *height_range_id* and
*diameter_level* across \*\*neighbourhood_name\*.

``` r
vancouver_trees_geo_size <- vancouver_trees_diameter %>%
  group_by(neighbourhood_name) %>%
  summarise(across(c("height_range_id", "diameter_level"), ~ mean(.x, na.rm = TRUE)))
print(vancouver_trees_geo_size)
```

    ## # A tibble: 22 × 3
    ##    neighbourhood_name       height_range_id diameter_level
    ##    <chr>                              <dbl>          <dbl>
    ##  1 ARBUTUS-RIDGE                       2.72           2.79
    ##  2 DOWNTOWN                            2.44           1.90
    ##  3 DUNBAR-SOUTHLANDS                   3.03           3.19
    ##  4 FAIRVIEW                            2.80           2.53
    ##  5 GRANDVIEW-WOODLAND                  2.60           2.69
    ##  6 HASTINGS-SUNRISE                    2.46           2.61
    ##  7 KENSINGTON-CEDAR COTTAGE            2.60           2.74
    ##  8 KERRISDALE                          2.81           2.93
    ##  9 KILLARNEY                           2.50           2.42
    ## 10 KITSILANO                           3.26           3.30
    ## # … with 12 more rows

##### Graphing: Create a graph out of summarized variables that has at least two geom layers.

To plot the *height_range_id* and *diameter_level* side by side for
easier comparison, I used pivot_longer() to make the data “tidier”.

``` r
vancouver_trees_geo_size <- vancouver_trees_geo_size %>% 
                            pivot_longer(c(`height_range_id`, `diameter_level`), 
                             names_to = "size_type", 
                             values_to = "value")
print(vancouver_trees_geo_size)
```

    ## # A tibble: 44 × 3
    ##    neighbourhood_name size_type       value
    ##    <chr>              <chr>           <dbl>
    ##  1 ARBUTUS-RIDGE      height_range_id  2.72
    ##  2 ARBUTUS-RIDGE      diameter_level   2.79
    ##  3 DOWNTOWN           height_range_id  2.44
    ##  4 DOWNTOWN           diameter_level   1.90
    ##  5 DUNBAR-SOUTHLANDS  height_range_id  3.03
    ##  6 DUNBAR-SOUTHLANDS  diameter_level   3.19
    ##  7 FAIRVIEW           height_range_id  2.80
    ##  8 FAIRVIEW           diameter_level   2.53
    ##  9 GRANDVIEW-WOODLAND height_range_id  2.60
    ## 10 GRANDVIEW-WOODLAND diameter_level   2.69
    ## # … with 34 more rows
…
